Candidate 2

Candidate 2

Candidate 8

Candidate 5

Candidate 4

Candidate 4

Candidate 2

Candidate 5

Candidate 2

Candidate 3

Candidate 8
Candidate 9

Candidate 1

Candidate 3

Candidate 3

Candidate 1

Candidate 1

Candidate 4

Candidate 1

Candidate 1

Candidate 3

Candidate 1

Candidate 1
Candidate 2

Candidate 7

Candidate 3

Candidate 1

Candidate 2

Candidate 1

Candidate 4

Candidate 3

Candidate 3

Candidate 1

Candidate 1

Candidate 2

Candidate 3

Candidate 1

Candidate 1

Candidate 1

Candidate 7

Candidate 7

Candidate 1

Candidate 3

Candidate 6

Candidate 2

Candidate 1

Candidate 1

Candidate 2

Candidate 4
Candidate 6

Candidate 1

Candidate 1

Candidate 3
Candidate 4
